wave.vcd
$date
     Dec 24, 2024       21:13:37
$end

$version
 SystemC 3.0.0-Accellera --- Oct  2 2024 02:44:37
$end

$timescale
     1 ps
$end

$scope module SystemC $end
$var wire    1  aaaaa  clk       $end
$var wire   32  aaaab  addr_bo [31:0]  $end
$var wire   32  aaaac  data_bi [31:0]  $end
$var wire   32  aaaad  data_bo [31:0]  $end
$var wire    1  aaaae  wr       $end
$var wire    1  aaaaf  rd       $end
$upscope $end
$enddefinitions  $end

$comment
All initial values are dumped below at time 0 sec = 0 timescale units.
$end

$dumpvars
1aaaaa
b0 aaaab
b0 aaaac
b0 aaaad
0aaaae
0aaaaf
$end

#5000
0aaaaa

#10000
1aaaaa
b10 aaaad
1aaaae

#15000
0aaaaa

#20000
1aaaaa
0aaaae

#25000
0aaaaa

#30000
1aaaaa
b1 aaaab
b100 aaaad
1aaaae

#35000
0aaaaa

#40000
1aaaaa
0aaaae

#45000
0aaaaa

#50000
1aaaaa
b10 aaaab
b110 aaaad
1aaaae

#55000
0aaaaa

#60000
1aaaaa
0aaaae

#65000
0aaaaa

#70000
1aaaaa
b11 aaaab
b1000 aaaad
1aaaae

#75000
0aaaaa

#80000
1aaaaa
0aaaae

#85000
0aaaaa

#90000
1aaaaa
b100 aaaab
b1010 aaaad
1aaaae

#95000
0aaaaa

#100000
1aaaaa
0aaaae

#105000
0aaaaa

#110000
1aaaaa
b0 aaaab
1aaaaf

#115000
0aaaaa

#120000
1aaaaa
b10 aaaac
0aaaaf

#125000
0aaaaa

#130000
1aaaaa

#135000
0aaaaa

#140000
1aaaaa
b1 aaaab
1aaaaf

#145000
0aaaaa

#150000
1aaaaa
b100 aaaac
0aaaaf

#155000
0aaaaa

#160000
1aaaaa

#165000
0aaaaa

#170000
1aaaaa
b10 aaaab
1aaaaf

#175000
0aaaaa

#180000
1aaaaa
b110 aaaac
0aaaaf

#185000
0aaaaa

#190000
1aaaaa

#195000
0aaaaa

#200000
1aaaaa
b11 aaaab
1aaaaf

#205000
0aaaaa

#210000
1aaaaa
b1000 aaaac
0aaaaf

#215000
0aaaaa

#220000
1aaaaa

#225000
0aaaaa

#230000
1aaaaa
b100 aaaab
1aaaaf

#235000
0aaaaa

#240000
1aaaaa
b1010 aaaac
0aaaaf

